{
  "title":  "Example Plot",
  "type":   "move-prediction",
  "xmax":   20,
  "errk":   1.96,
  "data":
  [
    {
      "label":  "Plot 1",
      "file":   "results_date/results-mp.csv"
    },
    {
      "label":  "Plot 2",
      "file":   "results_date/results-mp.csv"
    }
  ]
}
